<?xml version="1.0" encoding="UTF-8" standalone="no"?>
<svg
   xmlns:dc="http://purl.org/dc/elements/1.1/"
   xmlns:cc="http://creativecommons.org/ns#"
   xmlns:rdf="http://www.w3.org/1999/02/22-rdf-syntax-ns#"
   xmlns:svg="http://www.w3.org/2000/svg"
   xmlns="http://www.w3.org/2000/svg"
   xmlns:xlink="http://www.w3.org/1999/xlink"
   xmlns:sodipodi="http://sodipodi.sourceforge.net/DTD/sodipodi-0.dtd"
   xmlns:inkscape="http://www.inkscape.org/namespaces/inkscape"
   width="600"
   height="660"
   viewBox="-300 -300 600 660"
   id="svg3765"
   version="1.1"
   inkscape:version="0.48.3.1 r9886"
   sodipodi:docname="Blason_Isengard.svg">
  <metadata
     id="metadata3792">
    <rdf:RDF>
      <cc:Work
         rdf:about="">
        <dc:format>image/svg+xml</dc:format>
        <dc:type
           rdf:resource="http://purl.org/dc/dcmitype/StillImage" />
        <dc:title></dc:title>
      </cc:Work>
    </rdf:RDF>
  </metadata>
  <sodipodi:namedview
     pagecolor="#ffffff"
     bordercolor="#666666"
     borderopacity="1"
     objecttolerance="10"
     gridtolerance="10"
     guidetolerance="10"
     inkscape:pageopacity="0"
     inkscape:pageshadow="2"
     inkscape:window-width="902"
     inkscape:window-height="491"
     id="namedview3790"
     showgrid="false"
     inkscape:zoom="0.5"
     inkscape:cx="218.92333"
     inkscape:cy="526.08745"
     inkscape:window-x="-8"
     inkscape:window-y="-8"
     inkscape:window-maximized="1"
     inkscape:current-layer="layer3" />
  <defs
     id="defs3767">
    <radialGradient
       id="Gradient1"
       gradientUnits="userSpaceOnUse"
       cx="-80"
       cy="-80"
       r="405">
      <stop
         style="stop-color:#fff;stop-opacity:0.31"
         offset="0"
         id="stop3770" />
      <stop
         style="stop-color:#fff;stop-opacity:0.25"
         offset="0.19"
         id="stop3772" />
      <stop
         style="stop-color:#6b6b6b;stop-opacity:0.125"
         offset="0.6"
         id="stop3774" />
      <stop
         style="stop-color:#000;stop-opacity:0.125"
         offset="1"
         id="stop3776" />
    </radialGradient>
    <clipPath
       id="shield_cut">
      <path
         id="shield"
         d="M-298.5,-298.5 h597 v258.5 C 298.5,246.2 0,358.39 0,358.39 0,358.39 -298.5,246.2 -298.5,-40z" />
    </clipPath>
    <inkscape:perspective
       sodipodi:type="inkscape:persp3d"
       inkscape:vp_x="0 : 526.18109 : 1"
       inkscape:vp_y="0 : 1000 : 0"
       inkscape:vp_z="744.09448 : 526.18109 : 1"
       inkscape:persp3d-origin="372.04724 : 350.78739 : 1"
       id="perspective2413" />
    <inkscape:perspective
       sodipodi:type="inkscape:persp3d"
       inkscape:vp_x="0 : 526.18109 : 1"
       inkscape:vp_y="0 : 1000 : 0"
       inkscape:vp_z="744.09448 : 526.18109 : 1"
       inkscape:persp3d-origin="372.04724 : 350.78739 : 1"
       id="perspective2400" />
    <radialGradient
       r="300"
       fy="579.93323"
       fx="858.04236"
       cy="579.93323"
       cx="858.04236"
       gradientTransform="matrix(1.21503,0,0,1.26667,-839.192,-490.489)"
       gradientUnits="userSpaceOnUse"
       id="radialGradient3236"
       xlink:href="#linearGradient2893"
       inkscape:collect="always" />
    <linearGradient
       id="linearGradient2893">
      <stop
         id="stop2895"
         offset="0"
         style="stop-color: rgb(255, 255, 255); stop-opacity: 0.313726;" />
      <stop
         style="stop-color: rgb(255, 255, 255); stop-opacity: 0.25098;"
         offset="0.19"
         id="stop2897" />
      <stop
         id="stop2901"
         offset="0.60000002"
         style="stop-color: rgb(107, 107, 107); stop-opacity: 0.12549;" />
      <stop
         id="stop2899"
         offset="1"
         style="stop-color: rgb(0, 0, 0); stop-opacity: 0.12549;" />
    </linearGradient>
    <inkscape:perspective
       id="perspective20"
       inkscape:persp3d-origin="301.5 : 254.33333 : 1"
       inkscape:vp_z="603 : 381.5 : 1"
       inkscape:vp_y="0 : 1000 : 0"
       inkscape:vp_x="0 : 381.5 : 1"
       sodipodi:type="inkscape:persp3d" />
  </defs>
  <g
     id="layer4"
     inkscape:label="Fond écu"
     inkscape:groupmode="layer">
    <use
       xlink:href="#shield"
       fill="#e20909"
       id="use3781"
       style="fill:#000000" />
  </g>
  <g
     id="layer3"
     inkscape:label="Meubles"
     inkscape:groupmode="layer">
    <path
       style="fill:#ffffff"
       d="m -21.988323,-151.45012 c -1.482422,0.43313 1.081049,7.31598 8.571594,23.47751 7.0016408,15.10664 7.1798488,16.0397 6.6808008,31.704403 l -0.504211,16.128596 -13.1410098,-14.14504 c -8.690174,-9.352549 -13.141009,-15.474509 -13.141009,-18.112149 0,-4.81928 3.068156,-7.72457 6.86988,-6.50348 1.834009,0.58909 2.341003,0.28659 1.481121,-0.87797 -2.214678,-2.99938 -9.856576,-2.03132 -12.132586,1.52832 l -2.079873,3.28425 -2.36349,-3.67445 c -1.291689,-2.01617 -2.915139,-8.25624 -3.592507,-13.88491 -1.655477,-13.75665 -4.32338,-13.08552 -3.592506,0.91049 0.664692,12.72889 1.886638,15.06966 17.143187,32.809983 14.838578,17.254312 21.340606,28.820006 23.7609618,42.207501 1.104727,6.110304 1.638808,11.408038 1.165988,11.803792 -0.472798,0.395743 -2.644316,-2.34873 -4.8215198,-6.113258 -3.838169,-6.636439 -12.976919,-13.039451 -18.624308,-13.039451 -1.491458,0 -4.875201,1.425905 -7.500145,3.154182 -5.4679,3.60009 -6.570086,12.401111 -2.205925,17.396772 2.285499,2.616214 2.429865,2.207245 1.607174,-3.90208 -0.758032,-5.62914 -0.233107,-7.286982 3.025268,-9.755199 3.582946,-2.714069 4.365442,-2.807146 8.792186,-0.780416 7.016071,3.212255 14.792181,17.308825 17.0801608,30.9565 1.059893,6.32268 1.471904,11.889512 0.913884,12.356586 -0.558022,0.467073 -4.3129948,-0.907124 -8.3194888,-3.024111 -4.006494,-2.116999 -13.378654,-6.521854 -20.830233,-9.787718 -21.723513,-9.52096 -31.985909,-17.615455 -31.985909,-25.265966 0,-1.360921 2.431559,-7.144616 5.420272,-12.844344 2.988713,-5.699726 5.451785,-12.778173 5.451785,-15.705875 0,-9.783778 9.151639,-13.135538 17.269241,-6.340876 5.469332,4.577962 5.862062,2.706659 0.59875,-2.894041 -3.361496,-3.576973 -4.953443,-4.04269 -12.101073,-3.609432 -7.776967,0.471424 -8.284424,0.238117 -9.769096,-4.064659 -0.863179,-2.50163 -1.185067,-7.95959 -0.69329,-12.12897 0.879899,-7.45964 0.841277,-7.49988 -1.670201,-3.02411 -3.332352,5.93892 -3.301989,11.04927 0.03147,18.957605 1.494361,3.545193 2.710136,8.51715 2.710136,11.055896 0,4.653853 -10.342491,25.330998 -12.668314,25.330998 -2.015804,0 -4.885194,-6.30546 -7.279553,-15.998525 -2.258397,-9.142638 -10.925071,-25.369602 -14.559111,-27.249524 -1.09191,-0.56486 -0.21316,1.875007 1.95382,5.430392 2.16698,3.555376 5.43347,12.739521 7.27956,20.420885 6.898394,28.703647 14.723031,36.677874 52.437986,53.425975 15.544443,6.902831 22.301724,13.5567931 26.1559648,25.7862441 1.373231,4.3573127 2.21729,7.9342289 1.85928,7.9342289 -0.35801,0 -4.2077848,-2.0075523 -8.5400798,-4.4548737 C -28.3066,0.38902263 -38.18159,-1.0830913 -53.627632,1.8365795 c -19.567453,3.6987244 -26.24922,3.2930018 -32.55315,-1.98355653 -4.1295,-3.45647307 -5.29422,-5.78691967 -5.29422,-10.63316797 0,-5.136771 0.77568,-6.523465 4.47487,-7.934229 3.421549,-1.304897 5.129479,-1.244066 7.248049,0.227622 2.277201,1.581903 2.773163,1.511499 2.773163,-0.357691 0,-1.25082 -1.071022,-3.014872 -2.395006,-3.934598 -1.346903,-0.935656 -2.50112,-4.997513 -2.615596,-9.202404 -0.112487,-4.133333 -1.557115,-9.660125 -3.182831,-12.291552 -3.497729,-5.661501 -5.408619,-5.18857 -2.741659,0.682864 3.218466,7.085605 2.093208,14.246286 -3.68704,23.28241 -5.34308,8.352729 -5.9377,12.5122009 -2.71015,18.7950173 1.15176,2.24208372 0.51544,2.33034348 -5.861458,0.97552048 -19.90286,-4.22855398 -31.02521,-22.55173278 -23.19371,-38.24038278 2.52454,-5.057418 9.02079,-9.98282 13.141,-9.98282 3.67472,0 7.87831,4.537328 7.87831,8.51954 0,2.128268 0.80563,3.357776 1.82776,2.829008 6.412668,-3.317319 -3.38295,-15.369075 -11.4393,-14.080005 -4.30972,0.689597 -4.32125,0.604812 -3.49796,-9.267439 0.75919,-9.103899 0.42277,-10.31172 -3.62402,-13.462173 -2.72457,-2.121092 -5.59577,-3.062746 -7.43712,-2.471319 -4.07393,1.308526 -3.80424,3.568117 0.31513,2.666422 9.56437,-2.09351 9.7927,14.233079 0.4727,32.387261 -3.08024,5.999891 -5.63335,13.145171 -5.67238,15.900975 l -0.063,5.00767 -2.30046,-4.552427 c -1.27374,-2.501629 -3.81694,-9.91173 -5.64087,-16.486287 -3.39822,-12.249399 -9.56608,-20.452361 -17.96252,-23.835203 -2.44756,-0.986071 -2.02056,-0.337467 1.1975,1.755938 6.87949,4.475266 9.37892,9.1223 12.95192,24.030305 3.61941,15.101673 7.70511,22.309335 17.83648,31.5092943 8.05762,7.31682684 14.88621,10.6999294 29.843018,14.7953861 8.73677,2.3922977 11.566996,4.3470416 8.13041,5.6254986 -0.74718,0.277953 -6.98802,5.86802 -13.897328,12.389104 -13.47409,12.716971 -19.48122,16.193631 -27.95222,16.193631 -6.94584,0 -14.74818,-7.441111 -14.74818,-14.047487 0,-5.415474 4.45778,-10.210443 9.45396,-10.210443 1.89684,0 2.93222,-0.705215 2.30046,-1.560832 -0.63176,-0.855617 -3.22694,-1.368319 -5.76692,-1.138106 -4.04519,0.366629 -4.9408,-0.429781 -7.09047,-6.4059152 -1.34979,-3.7524481 -4.4638,-8.8794376 -6.93291,-11.3810658 l -4.47487,-4.5524263 3.68705,6.4059138 c 2.79673,4.8244178 3.73469,9.4771013 3.78159,18.9576055 0.0706,14.239719 1.47252,18.365924 8.22494,24.290446 l 4.75849,4.162219 -4.94757,0 c -5.83047,0 -16.95293,-3.674376 -21.4605,-7.088779 -1.76039,-1.333491 -3.69046,-4.682194 -4.31731,-7.478986 -0.62682,-2.796781 -1.97487,-4.672995 -2.96224,-4.162218 -1.72125,0.890423 -1.13584,6.167169 1.26053,11.348548 0.76838,1.661371 -0.0234,2.711936 -2.48955,3.251734 -6.98443,1.528845 -7.03444,12.606703 -0.063,14.535247 2.17646,0.602127 2.21943,0.335683 0.18908,-1.723419 -1.36658,-1.385873 -1.92633,-3.804621 -1.26053,-5.560464 1.79166,-4.725002 8.87779,-5.409906 18.8449,-1.82097 4.81361,1.733283 12.11643,3.611724 16.2293,4.162218 4.11287,0.550486 7.00746,1.622465 6.4287,2.406283 -2.04338,2.767438 1.27947,11.819014 4.94757,13.462175 3.40225,1.524101 3.50117,1.386622 1.51264,-1.723418 -1.18362,-1.851084 -1.71138,-5.805358 -1.19751,-8.812197 0.76868,-4.497745 4.88917,-8.884609 23.28826,-24.648138 21.458867,-18.384966 22.875693,-19.266222 34.790602,-22.3394064 14.687203,-3.7882439 31.73575,-4.1491393 40.053291,-0.8454514 5.77194,2.2925818 15.509745,11.0732608 17.6789128,15.9660108 0.930017,2.097758 0.20245,2.068643 -5.4832988,-0.357691 -8.726114,-3.723771 -22.565638,-3.640526 -32.111963,0.227622 -9.979615,4.043709 -16.946434,11.622047 -27.069847,29.395668 -9.038408,15.868666 -14.316789,20.020561 -20.231499,15.933492 -2.63195,-1.818765 -2.94025,-1.827245 -2.20593,0.03252 3.08272,7.807219 13.021622,4.347906 21.901705,-7.609055 3.044124,-4.098859 6.119449,-7.44647 6.806851,-7.44647 0.687421,0 2.174079,1.71984 3.308887,3.804529 1.510134,2.774232 3.416213,3.762073 7.090473,3.674458 2.828626,-0.06744 3.831411,-0.504326 2.300464,-0.97552 -13.729202,-4.225401 -11.926788,-21.372429 3.151322,-29.948462 10.027766,-5.703541 11.234908,-5.165252 10.052714,4.422357 -0.827743,6.712971 -0.309192,9.260124 2.836189,13.722314 2.125756,3.015704 3.908899,6.98365 3.939151,8.812196 0.05116,3.087243 0.190179,3.104786 1.985333,0.520278 1.473568,-2.121504 1.03693,-4.604839 -1.85928,-10.438063 -4.205919,-8.471177 -4.686745,-12.693861 -2.048359,-18.502362 1.468748,-3.233504 2.939896,-3.90208 8.666134,-3.90208 3.787948,0 8.773258,1.111521 11.092651,2.471317 9.2581568,5.427835 9.4064358,6.994411 7.5001438,81.260822 -2.5836498,100.65452 -3.2674208,104.78582 -19.2545718,118.3956 -9.664695,8.22753 -15.065232,10.12265 -35.799009,12.55169 -22.662708,2.655 -33.852328,5.67838 -39.927246,10.76324 -4.94016,4.13503 -6.23704,10.32171 -2.42652,11.60869 3.5759,1.20774 4.69458,1.10273 5.89297,-0.52029 0.6157,-0.83389 0.21044,-1.52832 -0.91388,-1.52832 -1.12433,0 -1.79946,-1.53809 -1.48112,-3.41431 0.86663,-5.10761 15.805338,-10.72867 30.441764,-11.47862 l 11.785946,-0.61782 -5.10514,3.41432 c -9.179337,6.11374 -10.048396,13.62475 -1.575661,13.62475 4.337175,0 4.437443,-0.14879 1.386581,-2.01607 -2.728498,-1.66998 -2.941383,-2.57286 -1.197502,-5.30033 3.37868,-5.28423 9.577162,-7.76881 22.027735,-8.8122 l 11.659888,-0.97551 -4.096718,3.70697 c -6.170901,5.63522 -4.993668,13.40645 2.016846,13.36462 3.085734,-0.0184 3.33668,-0.31494 1.229015,-1.43076 -4.481592,-2.3726 -0.09481,-9.41104 8.256462,-13.26707 15.246657,-7.03982 47.368098,-5.90649 58.709114,2.0811 5.591865,3.9384 7.270536,10.16959 3.15132,11.70625 -1.245301,0.46468 -0.22164,0.70685 2.268952,0.52028 3.625239,-0.2716 4.637041,-1.26301 5.073627,-5.00767 0.331943,-2.84736 -0.558737,-5.4455 -2.268951,-6.63354 -5.438979,-3.77828 -3.106336,-5.06006 7.342578,-4.03215 12.059557,1.18637 15.996691,2.7505 20.105429,7.99927 2.913253,3.72157 2.895222,4.03152 -0.346645,6.0157 -3.20988,1.96456 -3.122017,2.08111 1.512634,2.08111 2.72373,0 5.408676,-1.01363 5.98751,-2.27622 1.110667,-2.42262 -3.514505,-9.36405 -8.287975,-12.45413 -2.363006,-1.52968 -1.369569,-1.84615 5.703892,-1.88601 11.451406,-0.0646 24.891786,3.78806 30.126619,8.64962 3.91919,3.63975 4.03342,4.12343 1.26054,5.8206 -3.409778,2.08691 -1.03264,4.16059 3.21434,2.79649 4.43943,-1.42593 4.7269,-4.38928 0.91389,-9.43003 -4.68808,-6.19751 -17.326265,-10.11738 -41.818081,-12.97441 -21.78885,-2.54174 -26.429198,-4.2323 -37.311643,-13.59225 C 13.787613,214.17901 13.123345,209.53658 9.9345097,101.01444 8.0070814,35.41996 8.2603667,33.118243 18.66367,28.04555 c 16.719852,-8.152704 26.033503,3.080738 16.828055,20.290814 -5.150227,9.628616 -2.418893,12.207922 2.962242,2.796492 3.583925,-6.268198 4.357768,-9.546757 3.718559,-15.998529 -0.869785,-8.779117 -0.267686,-9.242653 7.563171,-5.853119 6.462749,2.797334 11.935026,8.515535 14.590617,15.250629 2.489332,6.313481 -0.413635,12.456459 -7.279552,15.47825 l -4.506389,2.016075 5.420272,-0.455244 c 3.906186,-0.311635 6.100303,-1.628571 7.878303,-4.74753 l 2.45803,-4.324805 5.042114,7.348917 C 81.965191,72.459823 90.1961,76.412277 96.154652,70.805841 99.613605,67.551278 99.606464,67.553348 95.681951,69.570182 88.268337,73.380069 83.502945,69.672656 73.685738,52.466066 63.177136,34.047645 57.914298,28.382564 47.372206,24.110952 35.283445,19.212625 16.250868,20.65321 10.470235,26.907443 5.7823292,31.97945 8.4284406,25.99369 13.747609,19.493491 23.318852,7.7971164 26.459645,6.539908 46.174704,6.6816625 71.410211,6.8631037 76.430322,9.1405862 103.68631,32.79308 c 20.92466,18.158271 22.18026,19.60406 22.1853,25.396036 0.003,3.377203 -0.94742,6.966097 -2.14289,7.966746 -1.64328,1.375468 -1.67472,1.820971 -0.063,1.820971 3.72885,0 8.12393,-7.313423 7.27955,-12.128965 -0.69817,-3.981703 -0.25212,-4.552426 3.56099,-4.552426 2.39722,0 9.64598,-1.772294 16.10325,-3.934597 7.16943,-2.400779 13.38476,-3.575346 16.00871,-3.024112 5.26327,1.105704 7.54703,6.220747 4.25429,9.560095 -2.03043,2.059102 -2.01897,2.325536 0.15756,1.723419 6.97146,-1.928544 6.9531,-13.006402 -0.0315,-14.535247 -2.53865,-0.555698 -3.27615,-1.541416 -2.395,-3.251734 2.45906,-4.773044 3.01251,-10.795754 0.97691,-10.795754 -1.10933,0 -2.01685,1.216721 -2.01685,2.698939 0,6.937533 -14.47602,15.41412 -26.28201,15.413215 l -5.42028,0 3.87613,-2.601387 c 7.11277,-4.802107 9.70607,-11.478326 9.70607,-24.973311 0,-9.6485842 0.85909,-14.0605349 3.62401,-18.599913 4.15111,-6.8151961 4.29829,-7.3588337 1.76475,-6.048224 -2.81757,1.4575673 -10.84055,15.4162955 -10.84055,18.860053 0,2.545966 -0.83956,2.908558 -5.19968,2.178661 -2.8679,-0.480102 -5.69988,-0.198517 -6.30264,0.617829 -0.60278,0.816367 1.23822,1.862728 4.09671,2.341248 7.4544,1.247906 10.3128,8.498116 6.2081,15.738388 -6.1774,10.896241 -19.99831,10.539789 -33.18346,-0.84545 C 99.539418,23.121 86.038967,10.389492 86.038967,9.5757054 c 0,-0.3310941 3.870962,-1.5855559 8.603104,-2.7639739 16.530629,-4.1165798 24.683619,-8.3450393 33.309469,-17.2992205 10.21732,-10.606238 13.16165,-16.277594 16.04022,-30.858947 2.48081,-12.566498 7.0439,-20.05591 14.21246,-23.314929 2.64856,-1.204108 3.6945,-2.210297 2.33197,-2.243691 -5.20178,-0.127485 -16.16821,11.257653 -18.97095,19.7055 -1.50923,4.549013 -4.15564,12.360998 -5.89297,17.364254 l -3.15132,9.104854 -1.41809,-7.446469 c -0.7681,-4.107299 -3.54852,-11.525829 -6.20811,-16.486287 -8.43315,-15.729004 -8.29791,-27.482093 0.34665,-29.298118 4.25845,-0.894623 4.38668,-1.16057 1.4496,-2.536351 -2.60499,-1.220237 -4.14284,-0.654492 -7.68922,2.796494 -3.98791,3.880657 -4.33279,5.261696 -3.40342,13.592241 l 1.03994,9.267441 -5.07364,-0.61783 c -3.88052,-0.47672 -5.97719,0.348773 -8.94975,3.511872 -4.141076,4.40652 -5.052117,8.99805 -2.07987,10.535615 1.00075,0.517697 1.79625,-0.570619 1.79625,-2.4388 0,-4.092584 4.88723,-8.909748 9.01278,-8.909748 1.65168,0 5.31965,2.036729 8.16192,4.519909 4.03388,3.524265 5.35316,6.311577 5.98752,12.714277 1.08937,10.995572 -2.0392,18.042394 -10.7145,24.2579289 -8.37087,5.9974235 -22.643068,10.0206349 -20.452073,5.7555674 3.340786,-6.5032783 2.681394,-10.6402633 -3.056777,-19.8030543 -5.769651,-9.213019 -5.852038,-9.719852 -3.781586,-17.982085 1.171939,-4.676637 1.796556,-8.794226 1.386582,-9.13737 -1.93713,-1.621413 -6.471957,9.424532 -6.523234,15.900975 -0.03171,4.002317 -1.247481,8.591787 -2.710137,10.210443 -3.485673,3.857502 -3.400341,6.286729 0.126053,3.837045 2.118565,-1.471688 3.794988,-1.532519 7.216525,-0.227622 3.508909,1.338205 4.474876,2.860516 4.474876,6.991226 0,15.1007894 -10.341799,18.8238418 -37.563748,13.4946934 -12.346221,-2.41697979 -13.715618,-2.41763545 -22.878592,0 -5.3602,1.4142797 -12.785973,4.2889269 -16.512923,6.4059138 L 7.6971224,12.047022 8.9576512,6.2589368 C 12.27634,-9.1430508 18.197083,-14.421483 45.166331,-26.030773 c 25.629388,-11.032533 38.412377,-25.540352 42.542836,-48.255725 1.110485,-6.107063 4.112147,-14.539139 6.649281,-18.729977 2.537155,-4.190838 4.210494,-7.945205 3.718565,-8.356955 -1.716597,-1.43685 -11.859635,15.355386 -13.865812,22.957232 -2.592756,9.824626 -7.172659,20.583942 -8.72916,20.485922 -1.951197,-0.122879 -11.317942,-17.619377 -12.321666,-23.022273 -0.506268,-2.725221 0.360098,-7.959879 1.922307,-11.608689 3.427799,-8.006152 3.514312,-16.038932 0.252105,-22.176812 -2.279308,-4.28851 -2.346196,-4.0246 -1.544148,4.55242 0.467848,5.00325 0.08544,10.792633 -0.850856,12.844351 -1.508126,3.305406 -2.635281,3.690439 -9.895149,3.316763 -7.058989,-0.36335 -8.752554,0.144826 -12.06956,3.674463 -2.117899,2.253664 -3.811838,5.189154 -3.781585,6.535979 0.04311,1.916989 0.4657,1.788453 2.016845,-0.585309 2.868641,-4.389959 7.077444,-6.828639 11.785941,-6.828639 4.881846,0 7.878303,4.032965 7.878303,10.633164 0,2.625146 2.43156,9.453355 5.420273,15.153081 2.988713,5.699728 5.451785,12.216722 5.451785,14.502727 0,5.825816 -13.37469,15.716309 -32.616173,24.12786 -8.468029,3.701847 -17.84152,8.127981 -20.830233,9.820234 -2.988713,1.692265 -6.133974,3.083112 -6.9959333,3.089147 -4.5049377,0.02872 4.5309743,-31.173809 11.3447563,-39.183385 8.073412,-9.490238 18.237083,-6.744584 18.340689,4.942635 0.04566,5.147562 0.410549,5.727129 2.016846,3.41432 1.065559,-1.534246 1.922306,-5.273364 1.922306,-8.29192 0,-6.213984 -5.252421,-10.925824 -12.195614,-10.925824 -5.621432,0 -14.657647,6.595348 -19.160033,13.982454 -2.0182871,3.311408 -3.9203536,5.784692 -4.22277,5.495428 -0.3024256,-0.289284 0.1577982,-5.228911 1.0084227,-10.990858 1.6558413,-11.215997 8.2076543,-24.437935 17.7734523,-35.769063 22.618388,-26.792528 22.183193,-26.000298 23.067671,-40.451558 0.925873,-15.12759 -1.942172,-14.75604 -3.497967,0.45524 -0.521616,5.09983 -1.961373,10.88471 -3.214348,12.84434 l -2.268951,3.54439 -2.678623,-3.34928 c -2.846233,-3.58804 -10.210371,-4.5381 -12.384692,-1.59336 -0.875986,1.18638 -0.310736,1.4492 1.6702,0.81294 1.654449,-0.53141 4.241245,0.13966 5.861458,1.4958 3.738082,3.12887 2.146337,8.64984 -4.285797,14.89293 -2.671766,2.593234 -8.116119,8.558563 -12.101073,13.267083 -3.984955,4.708511 -7.9374882,8.577028 -8.792187,8.617092 -0.8546183,0.03999 -1.212628,-7.592931 -0.7878299,-16.974049 0.6938752,-15.323496 1.4576345,-18.445336 7.4371179,-30.826426 3.660665,-7.57976 7.068741,-16.1139 7.594684,-18.95761 0.917211,-4.95912 0.797582,-4.88551 -2.804676,1.65838 -2.065623,3.75247 -7.088577,12.30087 -11.1871899,19.02264 l -7.46863226,12.22652 -9.64304204,-15.7709 c -5.3132978,-8.67404 -9.6745558,-16.69391 -9.6745558,-17.81951 0,-1.12558 -0.938348,-2.53113 -2.079872,-3.12166 -0.373126,-0.19302 -0.670591,-0.25697 -0.88237,-0.1951 z"
       id="path3017"
       inkscape:connector-curvature="0" />
    <path
       style="fill:#ffffff"
       d="m -6.0317255,-161.48275 c -3.128288,-0.39917 -6.4712895,-0.95352 -7.4943955,-1.24275 -0.179214,-0.0507 -1.022333,-0.27876 -1.873599,-0.50689 -0.851265,-0.22812 -1.547755,-0.55265 -1.547755,-0.72116 0,-0.16852 -0.144952,-0.21681 -0.322113,-0.10732 -0.184707,0.11416 -0.239331,-0.0166 -0.128059,-0.30661 0.128213,-0.33412 0.0072,-0.50569 -0.35673,-0.50569 -0.302927,0 -0.489684,-0.18329 -0.41501,-0.4073 0.07467,-0.22402 0.196864,-0.34071 0.271535,-0.25931 0.07467,0.0814 0.648972,-0.12353 1.27622,-0.45542 2.436728,-1.2893 2.832119,-1.44259 4.083761,-1.58324 0.710958,-0.0799 1.706976,-0.31094 2.213372,-0.51344 0.9957605,-0.39819 6.4630785,-0.77592 7.1904975,-0.49678 0.507403,0.19471 0.48246,1.5972 -0.04597,2.58458 -0.509687,0.95236 0.02923,1.66894 1.290783,1.71636 1.62881799,0.0612 2.09926099,-0.34602 1.61851499,-1.40114 -0.47739904,-1.04778 -0.35457904,-1.27032 1.265494,-2.29302 1.55352601,-0.9807 2.57498301,-0.99788 6.70446301,-0.11277 1.7670611,0.37876 3.7993595,0.79618 4.5162145,0.92761 0.716855,0.13143 1.743262,0.46743 2.280903,0.74667 0.537641,0.27923 1.415994,0.63464 1.951893,0.7898 0.544695,0.1577 1.025497,0.54761 1.090317,0.88418 0.06377,0.33115 -0.02519,0.51486 -0.19767,0.40826 -0.172491,-0.10661 -0.559557,0.0779 -0.860151,0.41008 -0.325117,0.35925 -1.233809,0.69405 -2.242991,0.8264 -0.933052,0.12238 -1.999127,0.4192 -2.369054,0.65962 -1.737992,1.12953 -12.18063151,1.68915 -17.9004705,0.95928 z m 23.2977945,-5.25766 c -0.627248,-0.30195 -1.248179,-0.70185 -1.379845,-0.88865 -0.131667,-0.18679 -0.241639,-0.23328 -0.244383,-0.1033 -0.0026,0.12997 -0.369294,0.0978 -0.814559,-0.0715 -1.639715,-0.62342 -6.9031635,-1.90849 -8.7256535,-2.13037 -1.032845,-0.12574 -1.957171,-0.35688 -2.054057,-0.51364 -0.09688,-0.15676 0.278671,-0.94609 0.834569,-1.75406 0.801473,-1.1649 1.204138,-1.46903 1.944975,-1.46903 0.615805,0 1.248745,-0.3332 1.8568891,-0.97753 0.909517,-0.96363 1.9650674,-1.24855 2.5702554,-0.69375 0.170254,0.15607 0.702809,0.37631 1.183457,0.48941 0.663537,0.15613 0.915681,0.0682 1.047449,-0.36524 0.24231,-0.79709 0.242225,-3.20297 -1.76e-4,-5.11142 -0.112331,-0.88438 -0.04667,-2.35067 0.145903,-3.25843 0.192577,-0.90776 0.539284,-2.59523 0.77046,-3.74993 0.237174,-1.18466 0.687151,-2.34804 1.032695,-2.66997 0.34454,-0.32098 0.527279,-0.79225 0.417815,-1.07751 -0.107006,-0.27886 -0.06241,-0.50701 0.0991,-0.50701 0.313605,0 0.606043,-0.74148 0.866353,-2.19665 0.08844,-0.49437 0.405062,-1.26543 0.703609,-1.71347 0.298548,-0.44803 0.546622,-0.92458 0.551281,-1.05899 0.0047,-0.13441 0.155099,-0.27377 0.334312,-0.3097 0.179214,-0.0359 0.569978,-0.61061 0.868369,-1.27708 0.464956,-1.03851 1.400533,-1.91603 2.0428,-1.91603 0.335517,0 0.192218,0.7816 -0.446894,2.43752 -0.34718,0.89953 -0.695082,1.85546 -0.773122,2.12428 -0.07804,0.26882 -0.185301,0.6354 -0.238364,0.81461 -1.478618,4.99385 -1.477693,13.37097 0.0016,16.11367 0.314771,0.58353 0.329988,0.83271 0.05642,0.9239 -0.206031,0.0687 -0.300656,0.24451 -0.210283,0.39073 0.09038,0.14623 -0.200205,0.90351 -0.64573,1.68285 -0.945959,1.65471 -1.069499,4.17754 -0.351618,7.18048 0.57874,2.42092 0.450658,2.56781 -1.443811,1.65579 z m -36.296194,-0.0307 c -0.09133,-0.14777 0.02643,-1.09665 0.261662,-2.10862 0.235242,-1.01198 0.350187,-1.91748 0.255435,-2.01223 -0.09475,-0.0948 0.052,-0.17227 0.32612,-0.17227 0.621543,0 0.627434,-1.64169 0.0076,-2.12428 -0.23462,-0.18268 -0.451222,-0.65922 -0.481336,-1.05899 -0.03011,-0.39977 -0.170178,-0.72685 -0.311252,-0.72685 -0.141077,0 -0.227452,-0.10997 -0.191944,-0.24438 0.117473,-0.4447 -0.42883,-1.71068 -0.738205,-1.71068 -0.482802,0 -0.352944,-1.25143 0.220707,-2.12693 0.288524,-0.44035 0.446685,-1.00365 0.351464,-1.25179 -0.09522,-0.24814 -0.04447,-1.02377 0.112778,-1.72363 0.602311,-2.68068 0.58191,-6.69952 -0.04687,-9.23476 -0.33336,-1.3441 -0.612947,-2.95702 -0.621305,-3.58427 -0.0083,-0.62725 -0.37584,-1.8736 -0.816631,-2.76967 -0.825824,-1.67879 -0.998176,-2.44382 -0.550555,-2.44382 0.333699,0 2.675747,2.80016 2.675747,3.19913 0,0.16794 0.221651,0.4893 0.492557,0.71413 0.633639,0.52587 1.700762,2.93893 1.986123,4.49117 0.122136,0.66436 0.31089,1.28126 0.419448,1.37086 0.598639,0.49413 1.481222,3.74375 1.592523,5.86359 0.07053,1.34323 0.288678,2.54139 0.484783,2.6626 0.256905,0.15877 0.258394,0.56903 0.0053,1.46788 -0.193177,0.68614 -0.369288,2.02085 -0.391354,2.96603 -0.04689,2.00835 0.393279,2.3609 2.153136,1.72453 1.034233,-0.37399 1.226725,-0.33389 2.4842315,0.51743 1.524611,1.03215 3.155271,1.81389 3.155271,1.51264 0,-0.10873 0.293259,0.0677 0.651687,0.39208 0.358428,0.32437 0.651686,0.78698 0.651686,1.02803 0,0.24104 0.14663,0.43826 0.325844,0.43826 0.179214,0 0.325843,0.29326 0.325843,0.65169 0,0.46446 -0.21723,0.65168 -0.756136,0.65168 -2.11323,0 -9.6837515,2.02477 -11.7073685,3.13119 -0.492838,0.26946 -0.896069,0.379 -0.896069,0.24342 0,-0.13558 -0.175956,-0.0706 -0.391012,0.1445 -0.457136,0.45714 -0.807557,0.49836 -1.039952,0.12234 z m 16.0215245,-4.52981 c -0.743369,-0.83717 -1.833374,-2.8749 -2.094553,-3.9157 -0.123967,-0.494 -0.284057,-2.35955 -0.355756,-4.14566 -0.158966,-3.96003 0.353755,-6.05904 2.402341,-9.83485 2.11200595,-3.89269 2.27843995,-3.92445 2.33324395,-0.4452 0.02535,1.60881 -0.09742,3.0014 -0.274211,3.11067 -0.17605295,0.1088 -0.22172895,0.35698 -0.10150995,0.5515 0.12492895,0.20214 0.06808,0.26065 -0.132689,0.13657 -0.420319,-0.25977 -1.791588,1.56727 -1.89966,2.53106 -0.04199,0.37447 -0.254347,1.12075 -0.471899,1.65839 -0.431368,1.06605 -0.508437,4.63254 -0.133779,6.19102 0.129246,0.53764 0.616554,1.66905 1.082905,2.51424 0.596022,1.08021 0.745545,1.63908 0.503323,1.8813 -0.242222,0.24222 -0.497035,0.17291 -0.857756,-0.23334 z m 4.77654,-0.12244 c -0.150654,-0.24377 0.876534,-2.30139 1.581255,-3.1675 0.192929,-0.23712 0.415825,-1.67034 0.495321,-3.18495 0.173384,-3.30339 -0.747211,-6.60008 -2.179634,-7.80539 -0.81121001,-0.68259 -0.86775301,-0.91485 -0.93910301,-3.8575 -0.04176,-1.72216 0.03869,-3.13119 0.17877,-3.13119 0.14008001,0 0.49288401,0.40323 0.78401201,0.89607 0.542513,0.9184 0.588717,1.06196 0.588717,1.82916 0,0.24439 0.346987,0.79425 0.771082,1.22192 0.424095,0.42767 1.120585,1.73067 1.547756,2.89556 0.650569,1.7741 0.776654,2.72639 0.776556,5.86518 -8.1e-5,2.53422 -0.148135,4.06363 -0.457373,4.72473 -0.251489,0.53764 -0.49668,1.17182 -0.544866,1.40929 -0.291668,1.43739 -2.131523,3.06666 -2.602493,2.30462 z m -1.89846101,-1.75885 c -0.126232,-0.71686 -0.302594,-1.77992 -0.391915,-2.36237 -0.18747704,-1.22247 -0.21483104,-1.23381 -1.28478999,-0.53275 -0.819,0.53663 -1.025895,0.33021 -0.500691,-0.49955 0.188585,-0.29795 0.12196,-0.72232 -0.187568,-1.19472 -0.429403,-0.65535 -0.422501,-0.76484 0.06541,-1.0379 0.439849,-0.24615 0.4752,-0.43654 0.18258,-0.9833 -0.583898,-1.09102 -0.467677,-1.45159 0.330245,-1.02455 0.857861,0.45911 1.11846695,0.11525 1.41590999,-1.86823 0.29797,-1.98701 0.719807,-1.75496 0.986477,0.54268 0.156897,1.35183 0.367845,1.95506 0.68368101,1.95506 0.251222,0 0.456771,-0.21995 0.456771,-0.48877 0,-0.27339 0.290473,-0.48876 0.659197,-0.48876 0.630419,0 0.635603,0.036 0.118783,0.82477 -0.581507,0.8875 -0.584166,0.87587 0.310014,1.3558 0.566931,0.30428 0.568994,0.35185 0.03824,0.8826 -0.466644,0.46665 -0.496869,0.7017 -0.179726,1.39776 0.472216,1.0364 0.211926,1.34814 -0.667219,0.79911 -0.92309101,-0.57648 -0.865525,-0.67793 -1.54536401,2.72312 l -0.260531,1.30337 -0.229511,-1.30337 z m 6.46179501,-2.49336 c 0.120128,-0.77922 0.288876,-3.103 0.374996,-5.16396 0.161218,-3.85821 0.47651,-5.05574 1.395098,-5.29881 0.3236601,-0.0856 0.7614801,-0.92786 1.1250651,-2.16425 0.77324,-2.62945 1.3728114,-2.48288 1.3220704,0.32319 -0.05285,2.92289 -0.353601,6.38684 -0.7047694,8.1174 -0.362364,1.78572 -1.382351,3.9443 -1.7549731,3.71401 -0.149682,-0.0925 -0.272147,0.0435 -0.272147,0.30232 0,0.25879 -0.383345,0.7217 -0.851878,1.0287 l -0.851878,0.55817 0.218416,-1.41677 z m -13.962515,0.0254 c -0.464369,-0.55189 -0.844309,-1.26974 -0.844309,-1.59524 0,-0.32551 -0.191149,-0.66518 -0.424773,-0.75483 -0.233626,-0.0897 -0.61046,-0.94846 -0.83741,-1.90846 -0.5145775,-2.17667 -0.8462375,-10.48988 -0.4121495,-10.33077 0.1701325,0.0624 0.9341405,1.28642 1.6977935,2.72013 1.36685,2.56619 1.392103,2.67266 1.622732,6.84271 0.128851,2.32978 0.337147,4.54933 0.46288,4.93234 0.369477,1.1255 -0.351748,1.17916 -1.264764,0.0941 z m 13.722319,-10.83557 c -0.372882,-0.97172 0.213255,-4.0535 1.108118,-5.82621 0.518792,-1.02772 0.945506,-2.20269 0.94825,-2.61103 0.0091,-1.35812 0.5098041,-1.69666 0.9472751,-0.64052 0.822647,1.98605 0.609591,3.67717 -0.7146101,5.67217 -0.672915,1.01378 -1.313256,2.29213 -1.422984,2.84076 -0.209693,1.04847 -0.586224,1.29404 -0.866049,0.56483 z m -13.112412,-0.95214 c -0.124733,-0.58244 -0.7229,-1.86834 -1.329265,-2.85755 -0.887952,-1.44859 -1.102481,-2.13472 -1.102481,-3.52609 0,-1.0547 0.179507,-1.90704 0.460899,-2.18843 0.397304,-0.3973 0.492317,-0.27045 0.688595,0.91935 0.125231,0.75913 0.408764,1.74681 0.63007,2.19485 1.532783,3.1031 1.995354,4.7512 1.644114,5.85786 -0.308948,0.9734 -0.734578,0.80177 -0.991932,-0.39999 z m 11.38934,-2.68078 c -0.306443,-1.22097 0.159152,-4.44214 0.778195,-5.38384 0.29452,-0.44803 0.551591,-0.88792 0.571265,-0.97753 0.01968,-0.0896 0.221613,-0.60281 0.448752,-1.14045 0.227135,-0.53764 0.491238,-1.53096 0.586889,-2.20739 0.220814,-1.56151 0.643374,-1.83023 1.078476,-0.68583 0.531975,1.3992 0.298003,4.37239 -0.398923,5.06931 -0.326466,0.32647 -0.518782,0.59358 -0.42737,0.59358 0.09142,0 -0.275158,0.8271 -0.814608,1.83801 -0.539447,1.0109 -0.980814,2.17528 -0.980814,2.58751 0,1.07576 -0.594479,1.29228 -0.841862,0.30663 z m -9.367424,0.24227 c -0.08424,-0.13733 -0.202345,-0.7629 -0.262444,-1.39015 -0.0601,-0.62724 -0.295911,-1.33556 -0.524024,-1.57402 -0.228113,-0.23847 -0.317434,-0.59104 -0.198488,-0.78349 0.118943,-0.19246 0.07014,-0.25961 -0.108453,-0.14924 -0.178595,0.11038 -0.670485,-0.49014 -1.093091,-1.33449 -1.228497,-2.45447 -1.235522,-6.2599 -0.01157,-6.2599 0.180977,0 0.708178,2.00126 1.200185,4.55589 0.05115,0.26557 0.248524,0.5347 0.438614,0.59806 0.190088,0.0634 0.262734,0.24931 0.161433,0.41322 -0.101298,0.16391 -0.04479,0.29801 0.12557,0.29801 0.277273,0 0.792621,1.26861 0.860389,2.11798 0.01431,0.17922 0.11558,0.47248 0.225073,0.65169 0.311454,0.50978 0.225396,2.11798 -0.113341,2.11798 -0.167389,0 -0.219983,0.1365 -0.116873,0.30333 0.103106,0.16683 0.04858,0.38917 -0.121178,0.49408 -0.169755,0.10491 -0.377571,0.0784 -0.461818,-0.0589 z m 7.65427,-2.61206 c 0.02845,-0.13441 -0.06003,-0.49962 -0.196627,-0.81159 -0.563229,-1.28633 0.477514,-6.25565 1.511991,-7.21941 0.629862,-0.5868 0.66361,-0.86293 0.468785,-3.83579 -0.115463,-1.7619 -0.155369,-3.20346 -0.08868,-3.20346 0.06669,0 0.507319,0.58337 0.979166,1.29639 0.735702,1.11172 0.857909,1.6455 0.857909,3.7472 0,1.41664 -0.137496,2.45081 -0.325843,2.45081 -0.179214,0 -0.325843,0.16944 -0.325843,0.37654 0,0.2071 -0.361614,0.85065 -0.803585,1.4301 -0.911869,1.19553 -1.298531,2.616 -1.259981,4.62876 0.01857,0.97026 -0.107525,1.38483 -0.42125,1.38483 -0.246275,0 -0.424495,-0.10997 -0.396043,-0.24438 z m -5.936141,-0.42359 c -0.01059,-0.0806 -0.06064,-0.65984 -0.111236,-1.28709 -0.0506,-0.62724 -0.635916,-2.31348 -1.300698,-3.74719 -1.663795,-3.58825 -1.899529,-4.80744 -1.286358,-6.65287 0.272878,-0.82127 0.718746,-1.84247 0.990818,-2.26934 0.722825,-1.13408 1.010808,-0.38272 0.838659,2.18811 -0.120777,1.80362 0.02454,2.68682 0.856228,5.20401 0.973965,2.9478 1.188158,4.18049 0.93172,5.36204 -0.115851,0.53379 -0.87634,1.52859 -0.919133,1.20233 z m 4.18790699,-2.11431 c -0.495904,-0.81393 -0.450957,-18.22906 0.04625,-17.92176 0.16764301,0.10361 0.70288001,1.0287 1.18941301,2.05575 1.195675,2.52403 1.289427,6.89454 0.218288,10.17637 -0.263216,0.80646 -0.655098,2.48702 -0.870845,3.73458 -0.215751,1.24755 -0.478149,2.12733 -0.58311001,1.95506 z m -2.02218599,-1.29076 c -0.122097,-0.71685 -0.2887,-1.74593 -0.37023,-2.28684 -0.08153,-0.54091 -0.458862,-1.56303 -0.838515,-2.27137 -0.575514,-1.07379 -0.6865,-1.82224 -0.667568,-4.50183 0.0215,-3.04542 0.751407,-6.30428 1.331656,-5.94567 0.118223,0.0731 0.413166,-0.31496 0.655437,-0.86229 0.73732799,-1.66574 0.93067699,-0.42965 0.64720999,4.13765 -0.144597,2.32977 -0.210867,5.81507 -0.147269,7.74509 0.0636,1.93003 0.0023,3.90953 -0.13654404,4.39889 -0.243816,0.86023 -0.259544,0.84651 -0.47417695,-0.41363 z"
       id="path3056"
       inkscape:connector-curvature="0" />
    <g
       transform="matrix(0.49619442,0,0,0.49619442,-27.85697,-276.53735)"
       id="g3255"
       style="fill:#ffffff;display:inline">
      <g
         id="g3257"
         inkscape:label="Meubles"
         style="fill:#ffffff;display:inline"
         transform="translate(-187.98477,-47.43008)">
        <path
           sodipodi:type="star"
           style="fill:#ffffff;fill-opacity:1;stroke:#000000;stroke-width:3.63329005;stroke-linecap:round;stroke-linejoin:round;stroke-miterlimit:4;stroke-opacity:1;stroke-dasharray:none;display:inline"
           id="path3259"
           sodipodi:sides="8"
           sodipodi:cx="187.76953"
           sodipodi:cy="96.865234"
           sodipodi:r1="49.177734"
           sodipodi:r2="24.588867"
           sodipodi:arg1="0"
           sodipodi:arg2="0.39269908"
           inkscape:flatsided="false"
           inkscape:rounded="0"
           inkscape:randomized="0"
           d="m 236.94727,96.865234 -26.46059,9.409756 12.05676,25.36415 -25.36416,-12.05675 -9.40975,26.46058 -9.40975,-26.46058 -25.36416,12.05675 12.05676,-25.36415 -26.46058,-9.409756 26.46058,-9.409752 -12.05676,-25.364157 25.36416,12.056758 9.40975,-26.460583 9.40975,26.460583 25.36416,-12.056758 -12.05676,25.364157 z"
           transform="matrix(1.10093,0,0,1.10093,37.4049,-3.07052)" />
      </g>
    </g>
    <g
       style="fill:#ffffff;display:inline"
       id="g3261"
       transform="matrix(0.49619442,0,0,0.49619442,39.858759,-211.90993)">
      <g
         transform="translate(-187.98477,-47.43008)"
         style="fill:#ffffff;display:inline"
         inkscape:label="Meubles"
         id="g3263">
        <path
           transform="matrix(1.10093,0,0,1.10093,37.4049,-3.07052)"
           d="m 236.94727,96.865234 -26.46059,9.409756 12.05676,25.36415 -25.36416,-12.05675 -9.40975,26.46058 -9.40975,-26.46058 -25.36416,12.05675 12.05676,-25.36415 -26.46058,-9.409756 26.46058,-9.409752 -12.05676,-25.364157 25.36416,12.056758 9.40975,-26.460583 9.40975,26.460583 25.36416,-12.056758 -12.05676,25.364157 z"
           inkscape:randomized="0"
           inkscape:rounded="0"
           inkscape:flatsided="false"
           sodipodi:arg2="0.39269908"
           sodipodi:arg1="0"
           sodipodi:r2="24.588867"
           sodipodi:r1="49.177734"
           sodipodi:cy="96.865234"
           sodipodi:cx="187.76953"
           sodipodi:sides="8"
           id="path3265"
           style="fill:#ffffff;fill-opacity:1;stroke:#000000;stroke-width:3.63329005;stroke-linecap:round;stroke-linejoin:round;stroke-miterlimit:4;stroke-opacity:1;stroke-dasharray:none;display:inline"
           sodipodi:type="star" />
      </g>
    </g>
    <g
       transform="matrix(0.49619442,0,0,0.49619442,91.598874,-161.34139)"
       id="g3267"
       style="fill:#ffffff;display:inline">
      <g
         id="g3269"
         inkscape:label="Meubles"
         style="fill:#ffffff;display:inline"
         transform="translate(-187.98477,-47.43008)">
        <path
           sodipodi:type="star"
           style="fill:#ffffff;fill-opacity:1;stroke:#000000;stroke-width:3.63329005;stroke-linecap:round;stroke-linejoin:round;stroke-miterlimit:4;stroke-opacity:1;stroke-dasharray:none;display:inline"
           id="path3271"
           sodipodi:sides="8"
           sodipodi:cx="187.76953"
           sodipodi:cy="96.865234"
           sodipodi:r1="49.177734"
           sodipodi:r2="24.588867"
           sodipodi:arg1="0"
           sodipodi:arg2="0.39269908"
           inkscape:flatsided="false"
           inkscape:rounded="0"
           inkscape:randomized="0"
           d="m 236.94727,96.865234 -26.46059,9.409756 12.05676,25.36415 -25.36416,-12.05675 -9.40975,26.46058 -9.40975,-26.46058 -25.36416,12.05675 12.05676,-25.36415 -26.46058,-9.409756 26.46058,-9.409752 -12.05676,-25.364157 25.36416,12.056758 9.40975,-26.460583 9.40975,26.460583 25.36416,-12.056758 -12.05676,25.364157 z"
           transform="matrix(1.10093,0,0,1.10093,37.4049,-3.07052)" />
      </g>
    </g>
    <g
       style="fill:#ffffff;display:inline"
       id="g3273"
       transform="matrix(0.49619442,0,0,0.49619442,152.99584,-101.25813)">
      <g
         transform="translate(-187.98477,-47.43008)"
         style="fill:#ffffff;display:inline"
         inkscape:label="Meubles"
         id="g3275">
        <path
           transform="matrix(1.10093,0,0,1.10093,37.4049,-3.07052)"
           d="m 236.94727,96.865234 -26.46059,9.409756 12.05676,25.36415 -25.36416,-12.05675 -9.40975,26.46058 -9.40975,-26.46058 -25.36416,12.05675 12.05676,-25.36415 -26.46058,-9.409756 26.46058,-9.409752 -12.05676,-25.364157 25.36416,12.056758 9.40975,-26.460583 9.40975,26.460583 25.36416,-12.056758 -12.05676,25.364157 z"
           inkscape:randomized="0"
           inkscape:rounded="0"
           inkscape:flatsided="false"
           sodipodi:arg2="0.39269908"
           sodipodi:arg1="0"
           sodipodi:r2="24.588867"
           sodipodi:r1="49.177734"
           sodipodi:cy="96.865234"
           sodipodi:cx="187.76953"
           sodipodi:sides="8"
           id="path3277"
           style="fill:#ffffff;fill-opacity:1;stroke:#000000;stroke-width:3.63329005;stroke-linecap:round;stroke-linejoin:round;stroke-miterlimit:4;stroke-opacity:1;stroke-dasharray:none;display:inline"
           sodipodi:type="star" />
      </g>
    </g>
    <g
       id="g3299"
       transform="matrix(-1,0,0,1,0.56854,0)">
      <g
         style="fill:#ffffff;display:inline"
         id="g3281"
         transform="matrix(0.49619442,0,0,0.49619442,39.858759,-211.90993)">
        <g
           transform="translate(-187.98477,-47.43008)"
           style="fill:#ffffff;display:inline"
           inkscape:label="Meubles"
           id="g3283">
          <path
             transform="matrix(1.10093,0,0,1.10093,37.4049,-3.07052)"
             d="m 236.94727,96.865234 -26.46059,9.409756 12.05676,25.36415 -25.36416,-12.05675 -9.40975,26.46058 -9.40975,-26.46058 -25.36416,12.05675 12.05676,-25.36415 -26.46058,-9.409756 26.46058,-9.409752 -12.05676,-25.364157 25.36416,12.056758 9.40975,-26.460583 9.40975,26.460583 25.36416,-12.056758 -12.05676,25.364157 z"
             inkscape:randomized="0"
             inkscape:rounded="0"
             inkscape:flatsided="false"
             sodipodi:arg2="0.39269908"
             sodipodi:arg1="0"
             sodipodi:r2="24.588867"
             sodipodi:r1="49.177734"
             sodipodi:cy="96.865234"
             sodipodi:cx="187.76953"
             sodipodi:sides="8"
             id="path3285"
             style="fill:#ffffff;fill-opacity:1;stroke:#000000;stroke-width:3.63329005;stroke-linecap:round;stroke-linejoin:round;stroke-miterlimit:4;stroke-opacity:1;stroke-dasharray:none;display:inline"
             sodipodi:type="star" />
        </g>
      </g>
      <g
         transform="matrix(0.49619442,0,0,0.49619442,91.598874,-161.34139)"
         id="g3287"
         style="fill:#ffffff;display:inline">
        <g
           id="g3289"
           inkscape:label="Meubles"
           style="fill:#ffffff;display:inline"
           transform="translate(-187.98477,-47.43008)">
          <path
             sodipodi:type="star"
             style="fill:#ffffff;fill-opacity:1;stroke:#000000;stroke-width:3.63329005;stroke-linecap:round;stroke-linejoin:round;stroke-miterlimit:4;stroke-opacity:1;stroke-dasharray:none;display:inline"
             id="path3291"
             sodipodi:sides="8"
             sodipodi:cx="187.76953"
             sodipodi:cy="96.865234"
             sodipodi:r1="49.177734"
             sodipodi:r2="24.588867"
             sodipodi:arg1="0"
             sodipodi:arg2="0.39269908"
             inkscape:flatsided="false"
             inkscape:rounded="0"
             inkscape:randomized="0"
             d="m 236.94727,96.865234 -26.46059,9.409756 12.05676,25.36415 -25.36416,-12.05675 -9.40975,26.46058 -9.40975,-26.46058 -25.36416,12.05675 12.05676,-25.36415 -26.46058,-9.409756 26.46058,-9.409752 -12.05676,-25.364157 25.36416,12.056758 9.40975,-26.460583 9.40975,26.460583 25.36416,-12.056758 -12.05676,25.364157 z"
             transform="matrix(1.10093,0,0,1.10093,37.4049,-3.07052)" />
        </g>
      </g>
      <g
         style="fill:#ffffff;display:inline"
         id="g3293"
         transform="matrix(0.49619442,0,0,0.49619442,152.99584,-101.25813)">
        <g
           transform="translate(-187.98477,-47.43008)"
           style="fill:#ffffff;display:inline"
           inkscape:label="Meubles"
           id="g3295">
          <path
             transform="matrix(1.10093,0,0,1.10093,37.4049,-3.07052)"
             d="m 236.94727,96.865234 -26.46059,9.409756 12.05676,25.36415 -25.36416,-12.05675 -9.40975,26.46058 -9.40975,-26.46058 -25.36416,12.05675 12.05676,-25.36415 -26.46058,-9.409756 26.46058,-9.409752 -12.05676,-25.364157 25.36416,12.056758 9.40975,-26.460583 9.40975,26.460583 25.36416,-12.056758 -12.05676,25.364157 z"
             inkscape:randomized="0"
             inkscape:rounded="0"
             inkscape:flatsided="false"
             sodipodi:arg2="0.39269908"
             sodipodi:arg1="0"
             sodipodi:r2="24.588867"
             sodipodi:r1="49.177734"
             sodipodi:cy="96.865234"
             sodipodi:cx="187.76953"
             sodipodi:sides="8"
             id="path3297"
             style="fill:#ffffff;fill-opacity:1;stroke:#000000;stroke-width:3.63329005;stroke-linecap:round;stroke-linejoin:round;stroke-miterlimit:4;stroke-opacity:1;stroke-dasharray:none;display:inline"
             sodipodi:type="star" />
        </g>
      </g>
    </g>
  </g>
  <g
     id="layer2"
     inkscape:label="Reflet final"
     inkscape:groupmode="layer"
     sodipodi:insensitive="true">
    <use
       xlink:href="#shield"
       fill="url(#Gradient1)"
       id="use3785" />
  </g>
  <g
     id="layer1"
     inkscape:label="Contour final"
     inkscape:groupmode="layer"
     sodipodi:insensitive="true">
    <use
       xlink:href="#shield"
       style="fill:none;stroke:#000;stroke-width:3"
       id="use3788" />
  </g>
</svg>
