<?xml version="1.0" standalone="no"?>
<!DOCTYPE svg PUBLIC "-//W3C//DTD SVG 1.1//EN" "http://www.w3.org/Graphics/SVG/1.1/DTD/svg11.dtd" >
<svg xmlns="http://www.w3.org/2000/svg">
<metadata>Generated by IcoMoon</metadata>
<defs>
<font id="icomoon" horiz-adv-x="1024">
<font-face units-per-em="1024" ascent="960" descent="-64" />
<missing-glyph horiz-adv-x="1024" />
<glyph unicode="&#x20;" horiz-adv-x="512" d="" />
<glyph unicode="&#xe900;" glyph-name="article" d="M810 640.667v84h-426v-84h426zM640 298.667v86h-256v-86h256zM810 468.667v86h-426v-86h426zM854 852.667q34 0 59-25t25-59v-512q0-34-25-60t-59-26h-512q-34 0-60 26t-26 60v512q0 34 26 59t60 25h512zM170 682.667v-598h598v-84h-598q-34 0-59 25t-25 59v598h84z" />
<glyph unicode="&#xe901;" glyph-name="message" d="M768 596.667v86h-512v-86h512zM768 468.667v86h-512v-86h512zM768 340.667v86h-512v-86h512zM854 852.667q34 0 59-25t25-59v-512q0-34-25-60t-59-26h-598l-170-170v768q0 34 25 59t59 25h684z" />
<glyph unicode="&#xe902;" glyph-name="add" d="M726 384.667v84h-172v172h-84v-172h-172v-84h172v-172h84v172h172zM810 810.667q34 0 60-26t26-60v-596q0-34-26-60t-60-26h-596q-36 0-61 25t-25 61v596q0 36 25 61t61 25h596z" />
<glyph unicode="&#xe903;" glyph-name="create" d="M884 638.667l-78-78-160 160 78 78q12 12 30 12t30-12l100-100q12-12 12-30t-12-30zM128 202.667l472 472 160-160-472-472h-160v160z" />
<glyph unicode="&#xe904;" glyph-name="category" d="M298 724.667h598v-84h-598v84zM298 384.667v84h598v-84h-598zM298 128.667v84h598v-84h-598zM170 234.667q26 0 45-19t19-45-19-45-45-19-45 19-19 45 19 45 45 19zM170 746.667q26 0 45-18t19-46-19-46-45-18-45 18-19 46 19 46 45 18zM170 490.667q26 0 45-18t19-46-19-46-45-18-45 18-19 46 19 46 45 18z" />
<glyph unicode="&#xe905;" glyph-name="delete" d="M810 768.667v-86h-596v86h148l44 42h212l44-42h148zM256 128.667v512h512v-512q0-34-26-60t-60-26h-340q-34 0-60 26t-26 60z" />
<glyph unicode="&#xe906;" glyph-name="home" d="M426 84.667h-212v342h-128l426 384 426-384h-128v-342h-212v256h-172v-256z" />
<glyph unicode="&#xe907;" glyph-name="burger" d="M128 724.667h768v-84h-768v84zM128 468.667v86h768v-86h-768zM128 128.667v84h768v-84h-768zM128 298.667v86h768v-86h-768z" />
</font></defs></svg>